# This file uses centimeters as units for non-parametric coordinates.

mtllib bright3d-2nd-floor_stairwellA.mtl
g default
v 77.000000 29.925341 112.699997
v 128.400009 29.925341 112.699997
v 77.000000 112.099991 112.699997
v 128.400009 112.099991 112.699997
v 126.800003 29.925341 113.699997
v 126.800003 29.925341 71.075012
v 126.800003 112.599991 113.699997
v 126.800003 112.599991 71.075012
vt 0.000000 0.000000
vt 1.000000 0.000000
vt 0.000000 0.324675
vt 1.000000 0.324675
vt 0.000000 0.000000
vt 1.000000 0.000000
vt 0.000000 0.324675
vt 1.000000 0.324675
vn 0.000000 0.000000 1.000000
vn 0.000000 0.000000 1.000000
vn 0.000000 0.000000 1.000000
vn 0.000000 0.000000 1.000000
vn 1.000000 0.000000 0.000000
vn 1.000000 0.000000 0.000000
vn 1.000000 0.000000 0.000000
vn 1.000000 0.000000 0.000000
s 1
g polySurface2
usemtl initialShadingGroup
f 1/1/1 2/2/2 3/3/3
f 3/3/3 2/2/2 4/4/4
s 2
f 5/5/5 6/6/6 7/7/7
f 7/7/7 6/6/6 8/8/8
