# This file uses centimeters as units for non-parametric coordinates.

mtllib bright_115.mtl
g default
v 31.192272 0.000000 86.133226
v 20.452555 0.000000 86.133226
v 20.452555 0.000000 76.760944
v 15.627599 0.000000 76.917150
v 15.485690 0.000000 86.445637
v 1.294645 0.000000 86.445637
v 1.294645 0.000000 88.632500
v 15.059957 0.000000 88.476294
v 15.059957 0.000000 99.254422
v 0.868913 0.000000 99.098223
v 1.010824 0.000000 101.753697
v 14.918047 0.000000 101.441285
v 14.918047 0.000000 124.559581
v 59.619836 0.000000 124.715793
v 59.619836 0.000000 76.760944
v 54.227239 0.000000 76.917150
v 54.085328 0.000000 86.445637
v 42.636055 0.000000 86.289431
v 42.636055 0.000000 88.320095
v 57.349269 0.000000 88.163889
v 57.491181 0.000000 122.372724
v 18.181987 0.000000 122.372724
v 18.040077 0.000000 88.788706
v 31.050360 0.000000 88.944912
v 31.192272 21.349539 86.133226
v 20.452557 21.349539 86.133226
v 20.452557 21.349539 76.760944
v 15.627601 21.349539 76.917150
v 15.485693 21.349539 86.445637
v 1.294647 21.349539 86.445637
v 1.294647 21.349539 88.632500
v 15.059960 21.349539 88.476294
v 15.059960 21.349539 99.254422
v 0.868916 21.349539 99.098223
v 1.010826 21.349539 101.753697
v 14.918050 21.349539 101.441285
v 14.918050 21.349539 124.559581
v 59.619836 21.349539 124.715793
v 59.619836 21.349539 76.760944
v 54.227239 21.349539 76.917150
v 54.085328 21.349539 86.445637
v 42.636055 21.349539 86.289431
v 42.636055 21.349539 88.320095
v 57.349269 21.349539 88.163889
v 57.491181 21.349539 122.372724
v 18.181989 21.349539 122.372724
v 18.040079 21.349539 88.788706
v 31.050360 21.349539 88.944912
vt 0.410628 0.596618
vt 0.666667 0.596618
vt 0.666667 0.743961
vt 0.748792 0.739130
vt 0.756039 0.591787
vt 0.992754 0.591787
vt 0.992754 0.557971
vt 0.758454 0.560387
vt 0.758454 0.393720
vt 1.000000 0.388889
vt 0.997585 0.364734
vt 0.760870 0.359903
vt 0.760870 0.002416
vt 0.007246 0.000000
vt 0.000000 0.741546
vt 0.091787 0.739130
vt 0.094203 0.591787
vt 0.340580 0.594203
vt 0.340580 0.562802
vt 0.038647 0.565217
vt 0.036232 0.036232
vt 0.712560 0.036232
vt 0.707729 0.555556
vt 0.413043 0.553140
vt 0.410628 0.596618
vt 0.666667 0.596618
vt 0.666667 0.743961
vt 0.748792 0.739130
vt 0.756039 0.591787
vt 0.992754 0.591787
vt 0.992754 0.557971
vt 0.758454 0.560387
vt 0.758454 0.393720
vt 1.000000 0.388889
vt 0.997585 0.364734
vt 0.760870 0.359903
vt 0.760870 0.002416
vt 0.007246 0.000000
vt 0.000000 0.741546
vt 0.091787 0.739130
vt 0.094203 0.591787
vt 0.340580 0.594203
vt 0.340580 0.562802
vt 0.038647 0.565217
vt 0.036232 0.036232
vt 0.712560 0.036232
vt 0.707729 0.555556
vt 0.413043 0.553140
vt 0.410628 0.596618
vt 0.666667 0.596618
vt 0.666667 0.743961
vt 0.748792 0.739130
vt 0.756039 0.591787
vt 0.992754 0.591787
vt 0.992754 0.557971
vt 0.758454 0.560387
vt 0.758454 0.393720
vt 1.000000 0.388889
vt 0.997585 0.364734
vt 0.760870 0.359903
vt 0.760870 0.002416
vt 0.007246 0.000000
vt 0.000000 0.741546
vt 0.091787 0.739130
vt 0.094203 0.591787
vt 0.340580 0.594203
vt 0.340580 0.562802
vt 0.038647 0.565217
vt 0.036232 0.036232
vt 0.712560 0.036232
vt 0.707729 0.555556
vt 0.413043 0.553140
vn 0.000000 1.000000 -0.000001
vn 0.000000 1.000000 -0.000000
vn 0.000000 1.000000 -0.000000
vn 0.000000 1.000000 0.000000
vn 0.000000 1.000000 -0.000000
vn 0.000000 1.000000 -0.000000
vn 0.000000 1.000000 -0.000000
vn 0.000000 1.000000 0.000000
vn 0.000000 1.000000 0.000000
vn 0.000000 1.000000 0.000000
vn 0.000000 1.000000 0.000000
vn 0.000000 1.000000 0.000000
vn 0.000000 1.000000 0.000000
vn 0.000000 1.000000 0.000000
vn 0.000000 1.000000 0.000000
vn 0.000000 1.000000 0.000000
vn 0.000000 1.000000 0.000000
vn 0.000000 1.000000 0.000000
vn 0.000000 1.000000 0.000000
vn 0.000000 1.000000 0.000001
vn 0.000000 1.000000 0.000000
vn 0.000000 1.000000 0.000001
vn 0.000000 1.000000 0.000001
vn 0.000000 1.000000 0.000000
vn 0.000000 -1.000000 0.000000
vn 0.000000 -1.000000 0.000000
vn 0.000000 -1.000000 0.000000
vn 0.000000 -1.000000 0.000000
vn 0.000000 -1.000000 0.000000
vn 0.000000 -1.000000 0.000000
vn 0.000000 -1.000000 0.000000
vn 0.000000 -1.000000 0.000000
vn 0.000000 -1.000000 0.000000
vn 0.000000 -1.000000 0.000000
vn 0.000000 -1.000000 0.000000
vn 0.000000 -1.000000 0.000000
vn 0.000000 -1.000000 0.000000
vn 0.000000 -1.000000 0.000000
vn 0.000000 -1.000000 0.000000
vn 0.000000 -1.000000 0.000000
vn 0.000000 -1.000000 0.000000
vn 0.000000 -1.000000 0.000000
vn 0.000000 -1.000000 0.000000
vn 0.000000 -1.000000 0.000000
vn 0.000000 -1.000000 0.000000
vn 0.000000 -1.000000 0.000000
vn 0.000000 -1.000000 0.000000
vn 0.000000 -1.000000 0.000000
vn 0.000000 0.000000 -1.000000
vn 0.000000 0.000000 -1.000000
vn 0.000000 0.000000 -1.000000
vn 0.000000 0.000000 -1.000000
vn 1.000000 -0.000000 0.000000
vn 1.000000 -0.000000 0.000000
vn 1.000000 -0.000000 0.000000
vn 1.000000 -0.000000 0.000000
vn -0.032355 0.000000 -0.999476
vn -0.032357 0.000000 -0.999476
vn -0.032357 0.000000 -0.999476
vn -0.032359 0.000000 -0.999476
vn -0.999889 0.000000 -0.014891
vn -0.999889 0.000000 -0.014891
vn -0.999889 0.000000 -0.014891
vn -0.999889 0.000000 -0.014891
vn 0.000000 0.000000 -1.000000
vn 0.000000 0.000000 -1.000000
vn 0.000000 0.000000 -1.000000
vn 0.000000 0.000000 -1.000000
vn -1.000000 0.000000 0.000000
vn -1.000000 0.000000 0.000000
vn -1.000000 0.000000 0.000000
vn -1.000000 0.000000 0.000000
vn 0.011347 -0.000000 0.999936
vn 0.011347 -0.000000 0.999936
vn 0.011347 -0.000000 0.999936
vn 0.011347 -0.000000 0.999936
vn -1.000000 0.000000 0.000000
vn -1.000000 0.000000 0.000000
vn -1.000000 0.000000 0.000000
vn -1.000000 0.000000 0.000000
vn 0.011006 -0.000000 -0.999939
vn 0.011006 -0.000000 -0.999939
vn 0.011006 -0.000000 -0.999939
vn 0.011007 -0.000000 -0.999939
vn -0.998575 0.000000 0.053365
vn -0.998575 0.000000 0.053364
vn -0.998575 0.000000 0.053364
vn -0.998575 0.000000 0.053364
vn 0.022459 -0.000000 0.999748
vn 0.022458 -0.000000 0.999748
vn 0.022458 -0.000000 0.999748
vn 0.022458 -0.000000 0.999748
vn -1.000000 0.000000 0.000000
vn -1.000000 0.000000 0.000000
vn -1.000000 0.000000 0.000000
vn -1.000000 0.000000 0.000000
vn -0.003494 0.000000 0.999994
vn -0.003494 0.000000 0.999994
vn -0.003494 0.000000 0.999994
vn -0.003495 0.000000 0.999994
vn 1.000000 0.000000 0.000000
vn 1.000000 0.000000 0.000000
vn 1.000000 0.000000 0.000000
vn 1.000000 0.000000 0.000000
vn -0.028953 0.000000 -0.999581
vn -0.028954 0.000000 -0.999581
vn -0.028954 0.000000 -0.999581
vn -0.028955 0.000000 -0.999581
vn -0.999889 0.000000 -0.014892
vn -0.999889 0.000000 -0.014892
vn -0.999889 0.000000 -0.014892
vn -0.999889 0.000000 -0.014892
vn 0.013644 0.000000 -0.999907
vn 0.013642 0.000000 -0.999907
vn 0.013642 0.000000 -0.999907
vn 0.013641 0.000000 -0.999907
vn -1.000000 0.000000 0.000000
vn -1.000000 0.000000 0.000000
vn -1.000000 0.000000 0.000000
vn -1.000000 0.000000 0.000000
vn 0.010616 0.000000 0.999944
vn 0.010616 0.000000 0.999944
vn 0.010616 0.000000 0.999944
vn 0.010616 0.000000 0.999944
vn -0.999991 0.000000 0.004148
vn -0.999991 0.000000 0.004148
vn -0.999991 0.000000 0.004148
vn -0.999991 0.000000 0.004148
vn 0.000000 0.000000 -1.000000
vn 0.000000 0.000000 -1.000000
vn 0.000000 0.000000 -1.000000
vn 0.000000 0.000000 -1.000000
vn 0.999991 -0.000000 -0.004225
vn 0.999991 -0.000000 -0.004225
vn 0.999991 -0.000000 -0.004225
vn 0.999991 0.000000 -0.004225
vn -0.012006 0.000000 0.999928
vn -0.012005 0.000000 0.999928
vn -0.012005 0.000000 0.999928
vn -0.012005 0.000000 0.999928
vn 0.998729 0.000000 0.050408
vn 0.998729 0.000000 0.050408
vn 0.998729 0.000000 0.050408
vn 0.998729 0.000000 0.050408
s 1
g polySurface9
usemtl initialShadingGroup
f 34/58/1 35/59/2 33/57/3
f 35/59/2 36/60/4 33/57/3
f 25/49/5 26/50/6 48/72/7
f 48/72/7 26/50/6 47/71/8
f 27/51/9 28/52/10 26/50/6
f 28/52/10 29/53/11 26/50/6
f 26/50/6 29/53/11 47/71/8
f 30/54/12 31/55/13 29/53/11
f 31/55/13 32/56/14 29/53/11
f 29/53/11 32/56/14 47/71/8
f 32/56/14 33/57/3 47/71/8
f 47/71/8 33/57/3 46/70/15
f 33/57/3 36/60/4 46/70/15
f 36/60/4 37/61/16 46/70/15
f 37/61/16 38/62/17 46/70/15
f 46/70/15 38/62/17 45/69/18
f 38/62/17 39/63/19 45/69/18
f 45/69/18 39/63/19 44/68/20
f 39/63/19 40/64/21 44/68/20
f 40/64/21 41/65/22 44/68/20
f 44/68/20 41/65/22 43/67/23
f 41/65/22 42/66/24 43/67/23
s 2
f 10/34/25 9/33/26 11/35/27
f 11/35/27 9/33/26 12/36/28
f 1/25/29 24/48/30 2/26/31
f 24/48/30 23/47/32 2/26/31
f 19/43/33 18/42/34 20/44/35
f 18/42/34 17/41/36 20/44/35
f 7/31/37 6/30/38 8/32/39
f 6/30/38 5/29/40 8/32/39
f 3/27/41 2/26/31 4/28/42
f 4/28/42 2/26/31 5/29/40
f 2/26/31 23/47/32 5/29/40
f 5/29/40 23/47/32 8/32/39
f 8/32/39 23/47/32 9/33/26
f 23/47/32 22/46/43 9/33/26
f 9/33/26 22/46/43 12/36/28
f 12/36/28 22/46/43 13/37/44
f 13/37/44 22/46/43 14/38/45
f 22/46/43 21/45/46 14/38/45
f 14/38/45 21/45/46 15/39/47
f 21/45/46 20/44/35 15/39/47
f 20/44/35 17/41/36 15/39/47
f 17/41/36 16/40/48 15/39/47
s 3
f 1/1/49 2/2/50 25/49/51
f 25/49/51 2/2/50 26/50/52
s 4
f 2/2/53 3/3/54 26/50/55
f 26/50/55 3/3/54 27/51/56
s 5
f 3/3/57 4/4/58 27/51/59
f 27/51/59 4/4/58 28/52/60
s 6
f 4/4/61 5/5/62 28/52/63
f 28/52/63 5/5/62 29/53/64
s 7
f 5/5/65 6/6/66 29/53/67
f 29/53/67 6/6/66 30/54/68
s 8
f 6/6/69 7/7/70 30/54/71
f 30/54/71 7/7/70 31/55/72
s 9
f 7/7/73 8/8/74 31/55/75
f 31/55/75 8/8/74 32/56/76
s 10
f 8/8/77 9/9/78 32/56/79
f 32/56/79 9/9/78 33/57/80
s 11
f 9/9/81 10/10/82 33/57/83
f 33/57/83 10/10/82 34/58/84
s 12
f 10/10/85 11/11/86 34/58/87
f 34/58/87 11/11/86 35/59/88
s 13
f 11/11/89 12/12/90 35/59/91
f 35/59/91 12/12/90 36/60/92
s 14
f 12/12/93 13/13/94 36/60/95
f 36/60/95 13/13/94 37/61/96
s 15
f 13/13/97 14/14/98 37/61/99
f 37/61/99 14/14/98 38/62/100
s 16
f 14/14/101 15/15/102 38/62/103
f 38/62/103 15/15/102 39/63/104
s 17
f 15/15/105 16/16/106 39/63/107
f 39/63/107 16/16/106 40/64/108
s 18
f 16/16/109 17/17/110 40/64/111
f 40/64/111 17/17/110 41/65/112
s 19
f 17/17/113 18/18/114 41/65/115
f 41/65/115 18/18/114 42/66/116
s 20
f 18/18/117 19/19/118 42/66/119
f 42/66/119 19/19/118 43/67/120
s 21
f 19/19/121 20/20/122 43/67/123
f 43/67/123 20/20/122 44/68/124
s 22
f 20/20/125 21/21/126 44/68/127
f 44/68/127 21/21/126 45/69/128
s 23
f 21/21/129 22/22/130 45/69/131
f 45/69/131 22/22/130 46/70/132
s 24
f 22/22/133 23/23/134 46/70/135
f 46/70/135 23/23/134 47/71/136
s 25
f 23/23/137 24/24/138 47/71/139
f 47/71/139 24/24/138 48/72/140
s 26
f 24/24/141 1/1/142 48/72/143
f 48/72/143 1/1/142 25/49/144
