# This file uses centimeters as units for non-parametric coordinates.

mtllib bright_2nd_floor.mtl
g default
v -72.547417 30 -66.163010
v -66.663101 30 -66.163010
v -72.547417 30 -73.681854
v -66.663101 30 -73.681854
v -74.181946 30 -72.374229
v -29.722689 30 -72.374229
v -74.181946 30 -117.814201
v -29.722689 30 -117.814201
v -41.770535 30 69.410149
v -35.850510 30 69.410149
v -29.930489 30 69.410149
v -41.770535 30 1.371824
v -35.850510 30 1.371824
v -29.930489 30 1.371824
v -41.770535 30 -66.666504
v -35.850510 30 -66.666504
v -29.930489 30 -66.666504
v -30.044497 30 -57.303642
v 42.883003 30 -57.303642
v 115.810509 30 -57.303642
v -30.044497 30 -62.165478
v 42.883003 30 -62.165478
v 115.810509 30 -62.165478
v -30.044497 30 -67.027306
v 42.883003 30 -67.027306
v 115.810509 30 -67.027306
v 106.515045 30 71.156807
v 111.376884 30 71.156807
v 116.238708 30 71.156807
v 106.515045 30 6.594740
v 111.376884 30 6.594740
v 116.238708 30 6.594740
v 106.515045 30 -57.967327
v 111.376884 30 -57.967327
v 116.238708 30 -57.967327
v 29.455927 30 -73.995155
v 73.906975 30 -73.995155
v 29.455927 30 -118.155678
v 73.906975 30 -118.155678
v 67.805847 30 -66.875877
v 72.163803 30 -66.875877
v 67.805847 30 -74.144333
v 72.163803 30 -74.144333
v 79.136513 30 -71.961449
v 95.987236 30 -71.961449
v 79.136513 30 -94.913300
v 95.987236 30 -94.913300
v 100.654732 30 -67.023712
v 104.722153 30 -67.023712
v 100.654732 30 -71.962715
v 104.722153 30 -71.962715
v 100.296967 30 -71.916092
v 118.349144 30 -71.916092
v 100.296967 30 -94.335732
v 118.349144 30 -94.335732
v 91.919823 30 -67.023712
v 95.987236 30 -67.023712
v 91.919823 30 -71.962715
v 95.987236 30 -71.962715
v 121.253159 30 -21.254818
v 170.206863 30 -21.254818
v 121.253159 30 -69.499054
v 170.206863 30 -69.499054
v 115.932091 30 -21.609556
v 121.607887 30 -21.609556
v 115.932091 30 -26.575871
v 121.607887 30 -26.575871
v 121.607887 30 16.702044
v 168.787918 30 16.702044
v 121.607887 30 -15.224289
v 168.787918 30 -15.224289
v 116.286835 30 -7.774810
v 121.607887 30 -7.774810
v 116.286835 30 -13.450603
v 121.607887 30 -13.450603
v 122.317368 30 70.267326
v 170.206848 30 70.267326
v 122.317368 30 22.377836
v 170.206848 30 22.377836
v 115.577370 30 50.402061
v 124.445786 30 50.402061
v 115.577370 30 43.307323
v 124.445786 30 43.307323
v -35.821877 30 69.203117
v 106.782410 30 69.203117
v -35.821877 30 58.561016
v 106.782410 30 58.561016
v 30.795216 30 52.175751
v 75.492081 30 52.175751
v 30.795216 30 6.769408
v 75.492081 30 6.769408
v 53.498386 30 58.561016
v 58.819443 30 58.561016
v 53.498386 30 52.175751
v 58.819443 30 52.175751
v 80.103661 30 0.738879
v 100.323677 30 0.738879
v 80.103661 30 -50.697987
v 100.323677 30 -50.697987
v 100.323662 30 1.093615
v 107.063675 30 1.093615
v 100.323662 30 -6.710599
v 107.063675 30 -6.710599
v 29.731005 30 0.029403
v 75.492081 30 0.029403
v 29.731005 30 -49.279041
v 75.492081 30 -49.279041
v 52.434177 30 -48.214832
v 59.174175 30 -48.214832
v 52.434177 30 -57.437988
v 59.174175 30 -57.437988
v 81.291702 30 54.910545
v 100.712334 30 54.910545
v 81.291702 30 6.965880
v 100.712334 30 6.965880
v 100.712334 30 52.482967
v 107.084717 30 52.482967
v 100.712334 30 46.414024
v 107.084717 30 46.414024
v -85.935509 30 -66.270599
v -79.259674 30 -66.270599
v -85.935509 30 -96.252068
v -79.259674 30 -96.252068
v 28.795330 30 120.151711
v 74.312416 30 120.151711
v 28.795330 30 73.420837
v 74.312416 30 73.420837
v 60.050392 30 74.634621
v 66.119339 30 74.634621
v 60.050392 30 68.565674
v 66.119339 30 68.565674
v -74.983635 30 118.331024
v -28.556204 30 118.331024
v -74.983635 30 77.972542
v -28.556204 30 77.972542
v -41.604431 30 78.882889
v -34.928596 30 78.882889
v -41.604431 30 68.262230
v -34.928596 30 68.262230
v -147.696869 30 69.586243
v -46.776009 30 69.586243
v -147.696869 30 40.808029
v -46.776009 30 40.808029
v -146.338974 30 42.779140
v -100.171188 30 42.779140
v -146.338974 30 27.010258
v -100.171188 30 27.010258
v -118.130203 30 97.181778
v -77.919556 30 97.181778
v -118.130203 30 74.711128
v -77.919556 30 74.711128
v -104.726654 30 75.105354
v -92.505760 30 75.105354
v -104.726654 30 68.797798
v -92.505760 30 68.797798
v -47.564449 30 69.192017
v -40.862679 30 69.192017
v -47.564449 30 59.730694
v -40.862679 30 59.730694
v -173.715515 30 72.345795
v -152.821747 30 72.345795
v -173.715515 30 49.480911
v -152.821747 30 49.480911
v -172.532852 30 44.750252
v -153.215973 30 44.750252
v -172.532852 30 25.827593
v -153.215973 30 25.827593
v -153.610184 30 41.202255
v -144.543076 30 41.202255
v -153.610184 30 31.346704
v -144.543076 30 31.346704
v -152.821762 30 63.672909
v -147.302628 30 63.672909
v -152.821762 30 55.000027
v -147.302628 30 55.000027
v -95.659546 30 35.683144
v -46.776005 30 35.683144
v -95.659546 30 4.145378
v -46.776005 30 4.145378
v -93.688438 30 40.808029
v -85.409767 30 40.808029
v -93.688438 30 35.288918
v -85.409767 30 35.288918
v -46.776009 30 16.760483
v -41.256893 30 16.760483
v -46.776009 30 10.452930
v -41.256893 30 10.452930
v -95.265327 30 -0.979511
v -46.776009 30 -0.979511
v -95.265327 30 -51.045719
v -46.776009 30 -51.045719
v -106.303535 30 -58.535931
v -41.651119 30 -58.535931
v -106.303535 30 -66.420372
v -41.651119 30 -66.420372
v -74.765778 30 -49.863049
v -66.881325 30 -49.863049
v -74.765778 30 -59.324375
v -66.881325 30 -59.324375
v -166.190262 30 -24.238615
v -106.338585 30 -24.238615
v -166.190262 30 -68.785706
v -106.338585 30 -68.785706
v -170.955963 30 22.279596
v -100.390205 30 22.279596
v -170.955963 30 -19.507946
v -100.390205 30 -19.507946
v -110.245758 30 27.798702
v -101.967102 30 27.798702
v -110.245758 30 21.885372
v -101.967102 30 21.885372
v 78.864120 30 107.400002
v 85.539970 30 107.400002
v 78.864120 30 68.481384
v 85.539970 30 68.481384
vt 0.000000 0.000000
vt 0.782609 0.000000
vt 0.000000 1.000000
vt 0.782609 1.000000
vt 0.000000 0.000000
vt 0.978417 0.000000
vt 0.000000 1.000000
vt 0.978417 1.000000
vt 0.000000 0.000000
vt 0.056306 0.000000
vt 0.000000 0.500000
vt 0.056306 0.500000
vt 0.112613 0.000000
vt 0.112613 0.500000
vt 0.000000 1.000000
vt 0.056306 1.000000
vt 0.112613 1.000000
vt 0.000000 0.000000
vt 0.500000 0.000000
vt 0.000000 0.033333
vt 0.500000 0.033333
vt 1.000000 0.000000
vt 1.000000 0.033333
vt 0.000000 0.066667
vt 0.500000 0.066667
vt 1.000000 0.066667
vt 0.000000 0.000000
vt 0.038889 0.000000
vt 0.000000 0.500000
vt 0.038889 0.500000
vt 0.077778 0.000000
vt 0.077778 0.500000
vt 0.000000 1.000000
vt 0.038889 1.000000
vt 0.077778 1.000000
vt 0.000000 0.000000
vt 1.000000 0.000000
vt 0.000000 0.993464
vt 1.000000 0.993464
vt 0.000000 0.000000
vt 0.652174 0.000000
vt 0.000000 1.000000
vt 0.652174 1.000000
vt 0.000000 0.000000
vt 0.734177 0.000000
vt 0.000000 1.000000
vt 0.734177 1.000000
vt 0.000000 0.000000
vt 0.823529 0.000000
vt 0.000000 1.000000
vt 0.823529 1.000000
vt 0.000000 0.000000
vt 0.805195 0.000000
vt 0.000000 1.000000
vt 0.805195 1.000000
vt 0.000000 0.000000
vt 0.823529 0.000000
vt 0.000000 1.000000
vt 0.823529 1.000000
vt 0.000000 0.000000
vt 1.000000 0.000000
vt 0.000000 0.985507
vt 1.000000 0.985507
vt 0.000000 0.000000
vt 1.000000 0.000000
vt 0.000000 0.875000
vt 1.000000 0.875000
vt 0.000000 0.000000
vt 1.000000 0.000000
vt 0.000000 0.676692
vt 1.000000 0.676692
vt 0.000000 0.000000
vt 0.937500 0.000000
vt 0.000000 1.000000
vt 0.937500 1.000000
vt 0.000000 0.000000
vt 1.000000 0.000000
vt 0.000000 1.000000
vt 1.000000 1.000000
vt 0.000000 0.000000
vt 1.000000 0.000000
vt 0.000000 0.800000
vt 1.000000 0.800000
vt 0.000000 0.000000
vt 1.000000 0.000000
vt 0.000000 0.074627
vt 1.000000 0.074627
vt 0.000000 0.000000
vt 0.984375 0.000000
vt 0.000000 1.000000
vt 0.984375 1.000000
vt 0.000000 0.000000
vt 0.833333 0.000000
vt 0.000000 1.000000
vt 0.833333 1.000000
vt 0.000000 0.000000
vt 0.393103 0.000000
vt 0.000000 1.000000
vt 0.393103 1.000000
vt 0.000000 0.000000
vt 0.863636 0.000000
vt 0.000000 1.000000
vt 0.863636 1.000000
vt 0.000000 0.000000
vt 0.928058 0.000000
vt 0.000000 1.000000
vt 0.928058 1.000000
vt 0.000000 0.000000
vt 0.730769 0.000000
vt 0.000000 1.000000
vt 0.730769 1.000000
vt 0.000000 0.000000
vt 0.405063 0.000000
vt 0.000000 1.000000
vt 0.405063 1.000000
vt 0.000000 0.000000
vt 1.000000 0.000000
vt 0.000000 0.952381
vt 1.000000 0.952381
vt 0.000000 0.000000
vt 0.268293 0.000000
vt 0.000000 1.000000
vt 0.268293 1.000000
vt 0.000000 0.000000
vt 0.974026 0.000000
vt 0.000000 1.000000
vt 0.974026 1.000000
vt 0.000000 0.000000
vt 1.000000 0.000000
vt 0.000000 1.000000
vt 1.000000 1.000000
vt 0.000000 0.000000
vt 1.000000 0.000000
vt 0.000000 0.869281
vt 1.000000 0.869281
vt 0.000000 0.000000
vt 0.628571 0.000000
vt 0.000000 1.000000
vt 0.628571 1.000000
vt 0.000000 0.000000
vt 1.000000 0.000000
vt 0.000000 0.285156
vt 1.000000 0.285156
vt 0.000000 0.000000
vt 1.000000 0.000000
vt 0.000000 0.322581
vt 1.000000 0.322581
vt 0.000000 0.000000
vt 1.000000 0.000000
vt 0.000000 0.558824
vt 1.000000 0.558824
vt 0.000000 0.000000
vt 1.000000 0.000000
vt 0.000000 0.516129
vt 1.000000 0.516129
vt 0.000000 0.000000
vt 0.708333 0.000000
vt 0.000000 1.000000
vt 0.708333 1.000000
vt 0.000000 0.000000
vt 0.913793 0.000000
vt 0.000000 1.000000
vt 0.913793 1.000000
vt 0.000000 0.000000
vt 1.000000 0.000000
vt 0.000000 0.979592
vt 1.000000 0.979592
vt 0.000000 0.000000
vt 0.920000 0.000000
vt 0.000000 1.000000
vt 0.920000 1.000000
vt 0.000000 0.000000
vt 0.636364 0.000000
vt 0.000000 1.000000
vt 0.636364 1.000000
vt 0.000000 0.000000
vt 1.000000 0.000000
vt 0.000000 0.645161
vt 1.000000 0.645161
vt 0.000000 0.000000
vt 1.000000 0.000000
vt 0.000000 0.666667
vt 1.000000 0.666667
vt 0.000000 0.000000
vt 0.875000 0.000000
vt 0.000000 1.000000
vt 0.875000 1.000000
vt 0.000000 0.000000
vt 0.968504 0.000000
vt 0.000000 1.000000
vt 0.968504 1.000000
vt 0.000000 0.000000
vt 1.000000 0.000000
vt 0.000000 0.121951
vt 1.000000 0.121951
vt 0.000000 0.000000
vt 0.833333 0.000000
vt 0.000000 1.000000
vt 0.833333 1.000000
vt 0.000000 0.000000
vt 0.991150 0.000000
vt 0.000000 1.000000
vt 0.991150 1.000000
vt 0.000000 0.000000
vt 1.000000 0.000000
vt 0.000000 0.592179
vt 1.000000 0.592179
vt 0.000000 0.000000
vt 1.000000 0.000000
vt 0.000000 0.714286
vt 1.000000 0.714286
vt 0.000000 0.000000
vt 0.268293 0.000000
vt 0.000000 1.000000
vt 0.268293 1.000000
vn 0.000000 1.000000 0.000000
vn 0.000000 1.000000 0.000000
vn 0.000000 1.000000 0.000000
vn 0.000000 1.000000 0.000000
vn 0.000000 1.000000 0.000000
vn 0.000000 1.000000 0.000000
vn 0.000000 1.000000 0.000000
vn 0.000000 1.000000 0.000000
vn 0.000000 1.000000 0.000000
vn 0.000000 1.000000 0.000000
vn 0.000000 1.000000 0.000000
vn 0.000000 1.000000 0.000000
vn 0.000000 1.000000 0.000000
vn 0.000000 1.000000 0.000000
vn 0.000000 1.000000 0.000000
vn 0.000000 1.000000 0.000000
vn 0.000000 1.000000 0.000000
vn 0.000000 1.000000 0.000000
vn 0.000000 1.000000 0.000000
vn 0.000000 1.000000 0.000000
vn 0.000000 1.000000 0.000000
vn 0.000000 1.000000 0.000000
vn 0.000000 1.000000 0.000000
vn 0.000000 1.000000 0.000000
vn 0.000000 1.000000 0.000000
vn 0.000000 1.000000 0.000000
vn 0.000000 1.000000 0.000000
vn 0.000000 1.000000 0.000000
vn 0.000000 1.000000 0.000000
vn 0.000000 1.000000 0.000000
vn 0.000000 1.000000 0.000000
vn 0.000000 1.000000 0.000000
vn 0.000000 1.000000 0.000000
vn 0.000000 1.000000 0.000000
vn 0.000000 1.000000 0.000000
vn 0.000000 1.000000 0.000000
vn 0.000000 1.000000 0.000000
vn 0.000000 1.000000 0.000000
vn 0.000000 1.000000 0.000000
vn 0.000000 1.000000 0.000000
vn 0.000000 1.000000 0.000000
vn 0.000000 1.000000 0.000000
vn 0.000000 1.000000 0.000000
vn 0.000000 1.000000 0.000000
vn 0.000000 1.000000 0.000000
vn 0.000000 1.000000 0.000000
vn 0.000000 1.000000 0.000000
vn 0.000000 1.000000 0.000000
vn 0.000000 1.000000 0.000000
vn 0.000000 1.000000 0.000000
vn 0.000000 1.000000 0.000000
vn 0.000000 1.000000 0.000000
vn 0.000000 1.000000 0.000000
vn 0.000000 1.000000 0.000000
vn 0.000000 1.000000 0.000000
vn 0.000000 1.000000 0.000000
vn 0.000000 1.000000 0.000000
vn 0.000000 1.000000 0.000000
vn 0.000000 1.000000 0.000000
vn 0.000000 1.000000 0.000000
vn 0.000000 1.000000 0.000000
vn 0.000000 1.000000 0.000000
vn 0.000000 1.000000 0.000000
vn 0.000000 1.000000 0.000000
vn 0.000000 1.000000 0.000000
vn 0.000000 1.000000 0.000000
vn 0.000000 1.000000 0.000000
vn 0.000000 1.000000 0.000000
vn 0.000000 1.000000 0.000000
vn 0.000000 1.000000 0.000000
vn 0.000000 1.000000 0.000000
vn 0.000000 1.000000 0.000000
vn 0.000000 1.000000 0.000000
vn 0.000000 1.000000 0.000000
vn 0.000000 1.000000 0.000000
vn 0.000000 1.000000 0.000000
vn 0.000000 1.000000 0.000000
vn 0.000000 1.000000 0.000000
vn 0.000000 1.000000 0.000000
vn 0.000000 1.000000 0.000000
vn 0.000000 1.000000 0.000000
vn 0.000000 1.000000 0.000000
vn 0.000000 1.000000 0.000000
vn 0.000000 1.000000 0.000000
vn 0.000000 1.000000 0.000000
vn 0.000000 1.000000 0.000000
vn 0.000000 1.000000 0.000000
vn 0.000000 1.000000 0.000000
vn 0.000000 1.000000 0.000000
vn 0.000000 1.000000 0.000000
vn 0.000000 1.000000 0.000000
vn 0.000000 1.000000 0.000000
vn 0.000000 1.000000 0.000000
vn 0.000000 1.000000 0.000000
vn 0.000000 1.000000 0.000000
vn 0.000000 1.000000 0.000000
vn 0.000000 1.000000 0.000000
vn 0.000000 1.000000 0.000000
vn 0.000000 1.000000 0.000000
vn 0.000000 1.000000 0.000000
vn 0.000000 1.000000 0.000000
vn 0.000000 1.000000 0.000000
vn 0.000000 1.000000 0.000000
vn 0.000000 1.000000 0.000000
vn 0.000000 1.000000 0.000000
vn 0.000000 1.000000 0.000000
vn 0.000000 1.000000 0.000000
vn 0.000000 1.000000 0.000000
vn 0.000000 1.000000 0.000000
vn 0.000000 1.000000 0.000000
vn 0.000000 1.000000 0.000000
vn 0.000000 1.000000 0.000000
vn 0.000000 1.000000 0.000000
vn 0.000000 1.000000 0.000000
vn 0.000000 1.000000 0.000000
vn 0.000000 1.000000 0.000000
vn 0.000000 1.000000 0.000000
vn 0.000000 1.000000 0.000000
vn 0.000000 1.000000 0.000000
vn 0.000000 1.000000 0.000000
vn 0.000000 1.000000 0.000000
vn 0.000000 1.000000 0.000000
vn 0.000000 1.000000 0.000000
vn 0.000000 1.000000 0.000000
vn 0.000000 1.000000 0.000000
vn 0.000000 1.000000 0.000000
vn 0.000000 1.000000 0.000000
vn 0.000000 1.000000 0.000000
vn 0.000000 1.000000 0.000000
vn 0.000000 1.000000 0.000000
vn 0.000000 1.000000 0.000000
vn 0.000000 1.000000 0.000000
vn 0.000000 1.000000 0.000000
vn 0.000000 1.000000 0.000000
vn 0.000000 1.000000 0.000000
vn 0.000000 1.000000 0.000000
vn 0.000000 1.000000 0.000000
vn 0.000000 1.000000 0.000000
vn 0.000000 1.000000 0.000000
vn 0.000000 1.000000 0.000000
vn 0.000000 1.000000 0.000000
vn 0.000000 1.000000 0.000000
vn 0.000000 1.000000 0.000000
vn 0.000000 1.000000 0.000000
vn 0.000000 1.000000 0.000000
vn 0.000000 1.000000 0.000000
vn 0.000000 1.000000 0.000000
vn 0.000000 1.000000 0.000000
vn 0.000000 1.000000 0.000000
vn 0.000000 1.000000 0.000000
vn 0.000000 1.000000 0.000000
vn 0.000000 1.000000 0.000000
vn 0.000000 1.000000 0.000000
vn 0.000000 1.000000 0.000000
vn 0.000000 1.000000 0.000000
vn 0.000000 1.000000 0.000000
vn 0.000000 1.000000 0.000000
vn 0.000000 1.000000 0.000000
vn 0.000000 1.000000 0.000000
vn 0.000000 1.000000 0.000000
vn 0.000000 1.000000 0.000000
vn 0.000000 1.000000 0.000000
vn 0.000000 1.000000 0.000000
vn 0.000000 1.000000 0.000000
vn 0.000000 1.000000 0.000000
vn 0.000000 1.000000 0.000000
vn 0.000000 1.000000 0.000000
vn 0.000000 1.000000 0.000000
vn 0.000000 1.000000 0.000000
vn 0.000000 1.000000 0.000000
vn 0.000000 1.000000 0.000000
vn 0.000000 1.000000 0.000000
vn 0.000000 1.000000 0.000000
vn 0.000000 1.000000 0.000000
vn 0.000000 1.000000 0.000000
vn 0.000000 1.000000 0.000000
vn 0.000000 1.000000 0.000000
vn 0.000000 1.000000 0.000000
vn 0.000000 1.000000 0.000000
vn 0.000000 1.000000 0.000000
vn 0.000000 1.000000 0.000000
vn 0.000000 1.000000 0.000000
vn 0.000000 1.000000 0.000000
vn 0.000000 1.000000 0.000000
vn 0.000000 1.000000 0.000000
vn 0.000000 1.000000 0.000000
vn 0.000000 1.000000 0.000000
vn 0.000000 1.000000 0.000000
vn 0.000000 1.000000 0.000000
vn 0.000000 1.000000 0.000000
vn 0.000000 1.000000 0.000000
vn 0.000000 1.000000 0.000000
vn 0.000000 1.000000 0.000000
vn 0.000000 1.000000 0.000000
vn 0.000000 1.000000 0.000000
vn 0.000000 1.000000 0.000000
vn 0.000000 1.000000 0.000000
vn 0.000000 1.000000 0.000000
vn 0.000000 1.000000 0.000000
vn 0.000000 1.000000 0.000000
vn 0.000000 1.000000 0.000000
vn 0.000000 1.000000 0.000000
vn 0.000000 1.000000 0.000000
vn 0.000000 1.000000 0.000000
vn 0.000000 1.000000 0.000000
vn 0.000000 1.000000 0.000000
vn 0.000000 1.000000 0.000000
vn 0.000000 1.000000 0.000000
vn 0.000000 1.000000 0.000000
vn 0.000000 1.000000 0.000000
vn 0.000000 1.000000 0.000000
vn 0.000000 1.000000 0.000000
vn 0.000000 1.000000 0.000000
vn 0.000000 1.000000 0.000000
vn 0.000000 1.000000 0.000000
s 1
g polySurface106
usemtl initialShadingGroup
f 1/1/1 2/2/2 3/3/3
f 3/3/3 2/2/2 4/4/4
s 2
f 5/5/5 6/6/6 7/7/7
f 7/7/7 6/6/6 8/8/8
s 3
f 9/9/9 10/10/10 12/11/11
f 12/11/11 10/10/10 13/12/12
f 10/10/10 11/13/13 13/12/12
f 13/12/12 11/13/13 14/14/14
f 12/11/11 13/12/12 15/15/15
f 15/15/15 13/12/12 16/16/16
f 13/12/12 14/14/14 16/16/16
f 16/16/16 14/14/14 17/17/17
s 4
f 18/18/18 19/19/19 21/20/20
f 21/20/20 19/19/19 22/21/21
f 19/19/19 20/22/22 22/21/21
f 22/21/21 20/22/22 23/23/23
f 21/20/20 22/21/21 24/24/24
f 24/24/24 22/21/21 25/25/25
f 22/21/21 23/23/23 25/25/25
f 25/25/25 23/23/23 26/26/26
s 5
f 27/27/27 28/28/28 30/29/29
f 30/29/29 28/28/28 31/30/30
f 28/28/28 29/31/31 31/30/30
f 31/30/30 29/31/31 32/32/32
f 30/29/29 31/30/30 33/33/33
f 33/33/33 31/30/30 34/34/34
f 31/30/30 32/32/32 34/34/34
f 34/34/34 32/32/32 35/35/35
s 6
f 36/36/36 37/37/37 38/38/38
f 38/38/38 37/37/37 39/39/39
s 7
f 40/40/40 41/41/41 42/42/42
f 42/42/42 41/41/41 43/43/43
s 8
f 44/44/44 45/45/45 46/46/46
f 46/46/46 45/45/45 47/47/47
s 9
f 48/48/48 49/49/49 50/50/50
f 50/50/50 49/49/49 51/51/51
s 10
f 52/52/52 53/53/53 54/54/54
f 54/54/54 53/53/53 55/55/55
s 11
f 56/56/56 57/57/57 58/58/58
f 58/58/58 57/57/57 59/59/59
s 12
f 60/60/60 61/61/61 62/62/62
f 62/62/62 61/61/61 63/63/63
s 13
f 64/64/64 65/65/65 66/66/66
f 66/66/66 65/65/65 67/67/67
s 14
f 68/68/68 69/69/69 70/70/70
f 70/70/70 69/69/69 71/71/71
s 15
f 72/72/72 73/73/73 74/74/74
f 74/74/74 73/73/73 75/75/75
s 16
f 76/76/76 77/77/77 78/78/78
f 78/78/78 77/77/77 79/79/79
s 17
f 80/80/80 81/81/81 82/82/82
f 82/82/82 81/81/81 83/83/83
s 18
f 84/84/84 85/85/85 86/86/86
f 86/86/86 85/85/85 87/87/87
s 19
f 88/88/88 89/89/89 90/90/90
f 90/90/90 89/89/89 91/91/91
s 20
f 92/92/92 93/93/93 94/94/94
f 94/94/94 93/93/93 95/95/95
s 21
f 96/96/96 97/97/97 98/98/98
f 98/98/98 97/97/97 99/99/99
s 22
f 100/100/100 101/101/101 102/102/102
f 102/102/102 101/101/101 103/103/103
s 23
f 104/104/104 105/105/105 106/106/106
f 106/106/106 105/105/105 107/107/107
s 24
f 108/108/108 109/109/109 110/110/110
f 110/110/110 109/109/109 111/111/111
s 25
f 112/112/112 113/113/113 114/114/114
f 114/114/114 113/113/113 115/115/115
s 26
f 116/116/116 117/117/117 118/118/118
f 118/118/118 117/117/117 119/119/119
s 27
f 120/120/120 121/121/121 122/122/122
f 122/122/122 121/121/121 123/123/123
s 28
f 124/124/124 125/125/125 126/126/126
f 126/126/126 125/125/125 127/127/127
s 29
f 128/128/128 129/129/129 130/130/130
f 130/130/130 129/129/129 131/131/131
s 30
f 132/132/132 133/133/133 134/134/134
f 134/134/134 133/133/133 135/135/135
s 31
f 136/136/136 137/137/137 138/138/138
f 138/138/138 137/137/137 139/139/139
s 32
f 140/140/140 141/141/141 142/142/142
f 142/142/142 141/141/141 143/143/143
s 33
f 144/144/144 145/145/145 146/146/146
f 146/146/146 145/145/145 147/147/147
s 34
f 148/148/148 149/149/149 150/150/150
f 150/150/150 149/149/149 151/151/151
s 35
f 152/152/152 153/153/153 154/154/154
f 154/154/154 153/153/153 155/155/155
s 36
f 156/156/156 157/157/157 158/158/158
f 158/158/158 157/157/157 159/159/159
s 37
f 160/160/160 161/161/161 162/162/162
f 162/162/162 161/161/161 163/163/163
s 38
f 164/164/164 165/165/165 166/166/166
f 166/166/166 165/165/165 167/167/167
s 39
f 168/168/168 169/169/169 170/170/170
f 170/170/170 169/169/169 171/171/171
s 40
f 172/172/172 173/173/173 174/174/174
f 174/174/174 173/173/173 175/175/175
s 41
f 176/176/176 177/177/177 178/178/178
f 178/178/178 177/177/177 179/179/179
s 42
f 180/180/180 181/181/181 182/182/182
f 182/182/182 181/181/181 183/183/183
s 43
f 184/184/184 185/185/185 186/186/186
f 186/186/186 185/185/185 187/187/187
s 44
f 188/188/188 189/189/189 190/190/190
f 190/190/190 189/189/189 191/191/191
s 45
f 192/192/192 193/193/193 194/194/194
f 194/194/194 193/193/193 195/195/195
s 46
f 196/196/196 197/197/197 198/198/198
f 198/198/198 197/197/197 199/199/199
s 47
f 200/200/200 201/201/201 202/202/202
f 202/202/202 201/201/201 203/203/203
s 48
f 204/204/204 205/205/205 206/206/206
f 206/206/206 205/205/205 207/207/207
s 49
f 208/208/208 209/209/209 210/210/210
f 210/210/210 209/209/209 211/211/211
s 50
f 212/212/212 213/213/213 214/214/214
f 214/214/214 213/213/213 215/215/215
