-77.2161 0 149.999
-73.797 0 154.201
-51.9186 0 161.075
-44.6259 0 163.366
-23.6576 0 167.934
-12.7381 0 168.742
0.212083 0 168.781
21.078 0 169.846
40.5156 0 173.13
58.0095 0 176.086
67.6881 0 179.634
67.3263 0 196.788
68.8563 0 211.669
74.1702 0 222.005
76.6977 0 234.573
77.6618 0 251.316
78.648 0 261.475
79.2275 0 275.392
77.9502 0 298.587
79.3951 0 311.093
83.606 0 325.644
86.8415 0 341.255
87.2374 0 353.199
89.8418 0 374.889
91.5136 0 384.695
94.3417 0 403.322

